
running 1 test
Ok(
    "{\"pagination\":{\"last_visible_page\":11,\"has_next_page\":true,\"current_page\":1,\"items\":{\"count\":5,\"total\":51,\"per_page\":5}},\"data\":[{\"mal_id\":16664,\"url\":\"https:\\/\\/myanimelist.net\\/anime\\/16664\\/Kaguya-hime_no_Monogatari\",\"images\":{\"jpg\":{\"image_url\":\"https:\\/\\/cdn.myanimelist.net\\/images\\/anime\\/1935\\/93606.jpg\",\"small_image_url\":\"https:\\/\\/cdn.myanimelist.net\\/images\\/anime\\/1935\\/93606t.jpg\",\"large_image_url\":\"https:\\/\\/cdn.myanimelist.net\\/images\\/anime\\/1935\\/93606l.jpg\"},\"webp\":{\"image_url\":\"https:\\/\\/cdn.myanimelist.net\\/images\\/anime\\/1935\\/93606.webp\",\"small_image_url\":\"https:\\/\\/cdn.myanimelist.net\\/images\\/anime\\/1935\\/93606t.webp\",\"large_image_url\":\"https:\\/\\/cdn.myanimelist.net\\/images\\/anime\\/1935\\/93606l.webp\"}},\"trailer\":{\"youtube_id\":\"W71mtorCZDw\",\"url\":\"https:\\/\\/www.youtube.com\\/watch?v=W71mtorCZDw\",\"embed_url\":\"https:\\/\\/www.youtube.com\\/embed\\/W71mtorCZDw?enablejsapi=1&wmode=opaque&autoplay=1\",\"images\":{\"image_url\":\"https:\\/\\/img.youtube.com\\/vi\\/W71mtorCZDw\\/default.jpg\",\"small_image_url\":\"https:\\/\\/img.youtube.com\\/vi\\/W71mtorCZDw\\/sddefault.jpg\",\"medium_image_url\":\"https:\\/\\/img.youtube.com\\/vi\\/W71mtorCZDw\\/mqdefault.jpg\",\"large_image_url\":\"https:\\/\\/img.youtube.com\\/vi\\/W71mtorCZDw\\/hqdefault.jpg\",\"maximum_image_url\":\"https:\\/\\/img.youtube.com\\/vi\\/W71mtorCZDw\\/maxresdefault.jpg\"}},\"approved\":true,\"titles\":[{\"type\":\"Default\",\"title\":\"Kaguya-hime no Monogatari\"},{\"type\":\"Synonym\",\"title\":\"Kaguyahime no Monogatari\"},{\"type\":\"Synonym\",\"title\":\"Princess Kaguya Story\"},{\"type\":\"Japanese\",\"title\":\"\\u304b\\u3050\\u3084\\u59eb\\u306e\\u7269\\u8a9e\"},{\"type\":\"English\",\"title\":\"The Tale of the Princess Kaguya\"},{\"type\":\"German\",\"title\":\"Die Legende der Prinzessin Kaguya\"},{\"type\":\"Spanish\",\"title\":\"El Cuento de la Princesa Kaguya\"},{\"type\":\"French\",\"title\":\"Le Conte de La Princesse Kaguya\"}],\"title\":\"Kaguya-hime no Monogatari\",\"title_english\":\"The Tale of the Princess Kaguya\",\"title_japanese\":\"\\u304b\\u3050\\u3084\\u59eb\\u306e\\u7269\\u8a9e\",\"title_synonyms\":[\"Kaguyahime no Monogatari\",\"Princess Kaguya Story\"],\"type\":\"Movie\",\"source\":\"Other\",\"episodes\":1,\"status\":\"Finished Airing\",\"airing\":false,\"aired\":{\"from\":\"2013-11-23T00:00:00+00:00\",\"to\":null,\"prop\":{\"from\":{\"day\":23,\"month\":11,\"year\":2013},\"to\":{\"day\":null,\"month\":null,\"year\":null}},\"string\":\"Nov 23, 2013\"},\"duration\":\"2 hr 17 min\",\"rating\":\"R+ - Mild Nudity\",\"score\":8.21,\"scored_by\":128898,\"rank\":382,\"popularity\":1053,\"members\":246067,\"favorites\":2856,\"synopsis\":\"Deep in the countryside, a man named Okina works as a bamboo cutter in a forest, chopping away at the hollow plants day after day. One day, he discovers a small baby inside a glowing shoot. He immediately takes her home, convinced that she is a princess sent to Earth as a divine blessing from heaven. Okina and his wife Ouna take it upon themselves to raise the infant as their own, watching over her as she quickly grows into an energetic young girl. Given the name Kaguya, she fits right in with the village she has come to call home, going on adventures with the other children and enjoying what youth has to offer.\\n\\nBut when Okina finds a large fortune of gold and treasure in the forest, Kaguya's life is completely changed. Believing this to be yet another gift from heaven, he takes it upon himself to turn his daughter into a real princess using the wealth he has just obtained, relocating the family to a mansion in the capital. As she leaves her friends behind to enter into an unwanted life of royalty, Kaguya's origins and purpose slowly come to light.\\n\\n[Written by MAL Rewrite]\",\"background\":\"Kaguya-hime no Monogatari is based on the 10th century Japanese folk tale of the same title. It was nominated for Best Animated Feature at the 87th Academy Awards, the first such nomination for Takahata. The film received over 20 nominations worldwide from critics associations, film festivals, and academies, winning seven times.\",\"season\":null,\"year\":null,\"broadcast\":{\"day\":null,\"time\":null,\"timezone\":null,\"string\":null},\"producers\":[],\"licensors\":[{\"mal_id\":783,\"type\":\"anime\",\"name\":\"GKIDS\",\"url\":\"https:\\/\\/myanimelist.net\\/anime\\/producer\\/783\\/GKIDS\"}],\"studios\":[{\"mal_id\":21,\"type\":\"anime\",\"name\":\"Studio Ghibli\",\"url\":\"https:\\/\\/myanimelist.net\\/anime\\/producer\\/21\\/Studio_Ghibli\"}],\"genres\":[{\"mal_id\":46,\"type\":\"anime\",\"name\":\"Award Winning\",\"url\":\"https:\\/\\/myanimelist.net\\/anime\\/genre\\/46\\/Award_Winning\"},{\"mal_id\":10,\"type\":\"anime\",\"name\":\"Fantasy\",\"url\":\"https:\\/\\/myanimelist.net\\/anime\\/genre\\/10\\/Fantasy\"}],\"explicit_genres\":[],\"themes\":[{\"mal_id\":13,\"type\":\"anime\",\"name\":\"Historical\",\"url\":\"https:\\/\\/myanimelist.net\\/anime\\/genre\\/13\\/Historical\"}],\"demographics\":[]},{\"mal_id\":37999,\"url\":\"https:\\/\\/myanimelist.net\\/anime\\/37999\\/Kaguya-sama_wa_Kokurasetai__Tensai-tachi_no_Renai_Zunousen\",\"images\":{\"jpg\":{\"image_url\":\"https:\\/\\/cdn.myanimelist.net\\/images\\/anime\\/1295\\/106551.jpg\",\"small_image_url\":\"https:\\/\\/cdn.myanimelist.net\\/images\\/anime\\/1295\\/106551t.jpg\",\"large_image_url\":\"https:\\/\\/cdn.myanimelist.net\\/images\\/anime\\/1295\\/106551l.jpg\"},\"webp\":{\"image_url\":\"https:\\/\\/cdn.myanimelist.net\\/images\\/anime\\/1295\\/106551.webp\",\"small_image_url\":\"https:\\/\\/cdn.myanimelist.net\\/images\\/anime\\/1295\\/106551t.webp\",\"large_image_url\":\"https:\\/\\/cdn.myanimelist.net\\/images\\/anime\\/1295\\/106551l.webp\"}},\"trailer\":{\"youtube_id\":\"Ti2kJ-GYO68\",\"url\":\"https:\\/\\/www.youtube.com\\/watch?v=Ti2kJ-GYO68\",\"embed_url\":\"https:\\/\\/www.youtube.com\\/embed\\/Ti2kJ-GYO68?enablejsapi=1&wmode=opaque&autoplay=1\",\"images\":{\"image_url\":\"https:\\/\\/img.youtube.com\\/vi\\/Ti2kJ-GYO68\\/default.jpg\",\"small_image_url\":\"https:\\/\\/img.youtube.com\\/vi\\/Ti2kJ-GYO68\\/sddefault.jpg\",\"medium_image_url\":\"https:\\/\\/img.youtube.com\\/vi\\/Ti2kJ-GYO68\\/mqdefault.jpg\",\"large_image_url\":\"https:\\/\\/img.youtube.com\\/vi\\/Ti2kJ-GYO68\\/hqdefault.jpg\",\"maximum_image_url\":\"https:\\/\\/img.youtube.com\\/vi\\/Ti2kJ-GYO68\\/maxresdefault.jpg\"}},\"approved\":true,\"titles\":[{\"type\":\"Default\",\"title\":\"Kaguya-sama wa Kokurasetai: Tensai-tachi no Renai Zunousen\"},{\"type\":\"Synonym\",\"title\":\"Kaguya Wants to be Confessed To: The Geniuses' War of Love and Brains\"},{\"type\":\"Japanese\",\"title\":\"\\u304b\\u3050\\u3084\\u69d8\\u306f\\u544a\\u3089\\u305b\\u305f\\u3044\\uff5e\\u5929\\u624d\\u305f\\u3061\\u306e\\u604b\\u611b\\u982d\\u8133\\u6226\\uff5e\"},{\"type\":\"English\",\"title\":\"Kaguya-sama: Love is War\"},{\"type\":\"German\",\"title\":\"Kauya-sama: Love Is War\"},{\"type\":\"Spanish\",\"title\":\"Kaguya-sama: Love is War\"},{\"type\":\"French\",\"title\":\"Kaguya-sama: Love is War\"}],\"title\":\"Kaguya-sama wa Kokurasetai: Tensai-tachi no Renai Zunousen\",\"title_english\":\"Kaguya-sama: Love is War\",\"title_japanese\":\"\\u304b\\u3050\\u3084\\u69d8\\u306f\\u544a\\u3089\\u305b\\u305f\\u3044\\uff5e\\u5929\\u624d\\u305f\\u3061\\u306e\\u604b\\u611b\\u982d\\u8133\\u6226\\uff5e\",\"title_synonyms\":[\"Kaguya Wants to be Confessed To: The Geniuses' War of Love and Brains\"],\"type\":\"TV\",\"source\":\"Manga\",\"episodes\":12,\"status\":\"Finished Airing\",\"airing\":false,\"aired\":{\"from\":\"2019-01-12T00:00:00+00:00\",\"to\":\"2019-03-30T00:00:00+00:00\",\"prop\":{\"from\":{\"day\":12,\"month\":1,\"year\":2019},\"to\":{\"day\":30,\"month\":3,\"year\":2019}},\"string\":\"Jan 12, 2019 to Mar 30, 2019\"},\"duration\":\"25 min per ep\",\"rating\":\"PG-13 - Teens 13 or older\",\"score\":8.4,\"scored_by\":1151021,\"rank\":198,\"popularity\":52,\"members\":1832944,\"favorites\":40974,\"synopsis\":\"At the renowned Shuchiin Academy, Miyuki Shirogane and Kaguya Shinomiya are the student body's top representatives. Ranked the top student in the nation and respected by peers and mentors alike, Miyuki serves as the student council president. Alongside him, the vice president Kaguya\\u2014eldest daughter of the wealthy Shinomiya family\\u2014excels in every field imaginable. They are the envy of the entire student body, regarded as the perfect couple.\\n\\nHowever, despite both having already developed feelings for the other, neither are willing to admit them. The first to confess loses, will be looked down upon, and will be considered the lesser. With their honor and pride at stake, Miyuki and Kaguya are both equally determined to be the one to emerge victorious on the battlefield of love!\\n\\n[Written by MAL Rewrite]\",\"background\":\"\",\"season\":\"winter\",\"year\":2019,\"broadcast\":{\"day\":\"Saturdays\",\"time\":\"23:30\",\"timezone\":\"Asia\\/Tokyo\",\"string\":\"Saturdays at 23:30 (JST)\"},\"producers\":[{\"mal_id\":17,\"type\":\"anime\",\"name\":\"Aniplex\",\"url\":\"https:\\/\\/myanimelist.net\\/anime\\/producer\\/17\\/Aniplex\"},{\"mal_id\":143,\"type\":\"anime\",\"name\":\"Mainichi Broadcasting System\",\"url\":\"https:\\/\\/myanimelist.net\\/anime\\/producer\\/143\\/Mainichi_Broadcasting_System\"},{\"mal_id\":306,\"type\":\"anime\",\"name\":\"Magic Capsule\",\"url\":\"https:\\/\\/myanimelist.net\\/anime\\/producer\\/306\\/Magic_Capsule\"},{\"mal_id\":1365,\"type\":\"anime\",\"name\":\"Shueisha\",\"url\":\"https:\\/\\/myanimelist.net\\/anime\\/producer\\/1365\\/Shueisha\"},{\"mal_id\":1501,\"type\":\"anime\",\"name\":\"JR East Marketing & Communications\",\"url\":\"https:\\/\\/myanimelist.net\\/anime\\/producer\\/1501\\/JR_East_Marketing___Communications\"}],\"licensors\":[{\"mal_id\":493,\"type\":\"anime\",\"name\":\"Aniplex of America\",\"url\":\"https:\\/\\/myanimelist.net\\/anime\\/producer\\/493\\/Aniplex_of_America\"}],\"studios\":[{\"mal_id\":56,\"type\":\"anime\",\"name\":\"A-1 Pictures\",\"url\":\"https:\\/\\/myanimelist.net\\/anime\\/producer\\/56\\/A-1_Pictures\"}],\"genres\":[{\"mal_id\":4,\"type\":\"anime\",\"name\":\"Comedy\",\"url\":\"https:\\/\\/myanimelist.net\\/anime\\/genre\\/4\\/Comedy\"},{\"mal_id\":22,\"type\":\"anime\",\"name\":\"Romance\",\"url\":\"https:\\/\\/myanimelist.net\\/anime\\/genre\\/22\\/Romance\"}],\"explicit_genres\":[],\"themes\":[{\"mal_id\":23,\"type\":\"anime\",\"name\":\"School\",\"url\":\"https:\\/\\/myanimelist.net\\/anime\\/genre\\/23\\/School\"}],\"demographics\":[{\"mal_id\":42,\"type\":\"anime\",\"name\":\"Seinen\",\"url\":\"https:\\/\\/myanimelist.net\\/anime\\/genre\\/42\\/Seinen\"}]},{\"mal_id\":40591,\"url\":\"https:\\/\\/myanimelist.net\\/anime\\/40591\\/Kaguya-sama_wa_Kokurasetai_Tensai-tachi_no_Renai_Zunousen\",\"images\":{\"jpg\":{\"image_url\":\"https:\\/\\/cdn.myanimelist.net\\/images\\/anime\\/1764\\/106659.jpg\",\"small_image_url\":\"https:\\/\\/cdn.myanimelist.net\\/images\\/anime\\/1764\\/106659t.jpg\",\"large_image_url\":\"https:\\/\\/cdn.myanimelist.net\\/images\\/anime\\/1764\\/106659l.jpg\"},\"webp\":{\"image_url\":\"https:\\/\\/cdn.myanimelist.net\\/images\\/anime\\/1764\\/106659.webp\",\"small_image_url\":\"https:\\/\\/cdn.myanimelist.net\\/images\\/anime\\/1764\\/106659t.webp\",\"large_image_url\":\"https:\\/\\/cdn.myanimelist.net\\/images\\/anime\\/1764\\/106659l.webp\"}},\"trailer\":{\"youtube_id\":\"_NkxM_uLUpw\",\"url\":\"https:\\/\\/www.youtube.com\\/watch?v=_NkxM_uLUpw\",\"embed_url\":\"https:\\/\\/www.youtube.com\\/embed\\/_NkxM_uLUpw?enablejsapi=1&wmode=opaque&autoplay=1\",\"images\":{\"image_url\":\"https:\\/\\/img.youtube.com\\/vi\\/_NkxM_uLUpw\\/default.jpg\",\"small_image_url\":\"https:\\/\\/img.youtube.com\\/vi\\/_NkxM_uLUpw\\/sddefault.jpg\",\"medium_image_url\":\"https:\\/\\/img.youtube.com\\/vi\\/_NkxM_uLUpw\\/mqdefault.jpg\",\"large_image_url\":\"https:\\/\\/img.youtube.com\\/vi\\/_NkxM_uLUpw\\/hqdefault.jpg\",\"maximum_image_url\":\"https:\\/\\/img.youtube.com\\/vi\\/_NkxM_uLUpw\\/maxresdefault.jpg\"}},\"approved\":true,\"titles\":[{\"type\":\"Default\",\"title\":\"Kaguya-sama wa Kokurasetai? Tensai-tachi no Renai Zunousen\"},{\"type\":\"Synonym\",\"title\":\"Kaguya Wants to be Confessed To: The Geniuses' War of Love and Brains 2nd Season\"},{\"type\":\"Synonym\",\"title\":\"Kaguya-sama wa Kokurasetai: Tensai-tachi no Renai Zunousen 2nd Season\"},{\"type\":\"Synonym\",\"title\":\"Kaguya-sama: Love is War 2nd Season\"},{\"type\":\"Japanese\",\"title\":\"\\u304b\\u3050\\u3084\\u69d8\\u306f\\u544a\\u3089\\u305b\\u305f\\u3044\\uff1f\\uff5e\\u5929\\u624d\\u305f\\u3061\\u306e\\u604b\\u611b\\u982d\\u8133\\u6226\\uff5e\"},{\"type\":\"English\",\"title\":\"Kaguya-sama: Love is War?\"},{\"type\":\"German\",\"title\":\"Kaguya-sama: Love Is War Staffel 2\"},{\"type\":\"Spanish\",\"title\":\"Kaguya-sama: Love Is War? Temporada 2\"},{\"type\":\"French\",\"title\":\"Kaguya-sama: Love is War Saison 2\"}],\"title\":\"Kaguya-sama wa Kokurasetai? Tensai-tachi no Renai Zunousen\",\"title_english\":\"Kaguya-sama: Love is War?\",\"title_japanese\":\"\\u304b\\u3050\\u3084\\u69d8\\u306f\\u544a\\u3089\\u305b\\u305f\\u3044\\uff1f\\uff5e\\u5929\\u624d\\u305f\\u3061\\u306e\\u604b\\u611b\\u982d\\u8133\\u6226\\uff5e\",\"title_synonyms\":[\"Kaguya Wants to be Confessed To: The Geniuses' War of Love and Brains 2nd Season\",\"Kaguya-sama wa Kokurasetai: Tensai-tachi no Renai Zunousen 2nd Season\",\"Kaguya-sama: Love is War 2nd Season\"],\"type\":\"TV\",\"source\":\"Manga\",\"episodes\":12,\"status\":\"Finished Airing\",\"airing\":false,\"aired\":{\"from\":\"2020-04-11T00:00:00+00:00\",\"to\":\"2020-06-27T00:00:00+00:00\",\"prop\":{\"from\":{\"day\":11,\"month\":4,\"year\":2020},\"to\":{\"day\":27,\"month\":6,\"year\":2020}},\"string\":\"Apr 11, 2020 to Jun 27, 2020\"},\"duration\":\"24 min per ep\",\"rating\":\"PG-13 - Teens 13 or older\",\"score\":8.62,\"scored_by\":907794,\"rank\":86,\"popularity\":99,\"members\":1416957,\"favorites\":18919,\"synopsis\":\"After a slow but eventful summer vacation, Shuchiin Academy's second term is now starting in full force. As August transitions into September, Miyuki Shirogane's birthday looms ever closer, leaving Kaguya Shinomiya in a serious predicament as to how to celebrate it. Furthermore, the tenure of the school's 67th student council is coming to an end. Due to the council members being in different classes, the only time Kaguya and Miyuki have to be together will soon disappear, putting all of their cunning plans at risk.\\n\\nA long and difficult election that will decide the fate of the new student council awaits, as multiple challengers fight for the coveted title of president.\\n\\n[Written by MAL Rewrite]\",\"background\":\"\",\"season\":\"spring\",\"year\":2020,\"broadcast\":{\"day\":\"Saturdays\",\"time\":\"23:30\",\"timezone\":\"Asia\\/Tokyo\",\"string\":\"Saturdays at 23:30 (JST)\"},\"producers\":[{\"mal_id\":17,\"type\":\"anime\",\"name\":\"Aniplex\",\"url\":\"https:\\/\\/myanimelist.net\\/anime\\/producer\\/17\\/Aniplex\"},{\"mal_id\":143,\"type\":\"anime\",\"name\":\"Mainichi Broadcasting System\",\"url\":\"https:\\/\\/myanimelist.net\\/anime\\/producer\\/143\\/Mainichi_Broadcasting_System\"},{\"mal_id\":1365,\"type\":\"anime\",\"name\":\"Shueisha\",\"url\":\"https:\\/\\/myanimelist.net\\/anime\\/producer\\/1365\\/Shueisha\"},{\"mal_id\":1501,\"type\":\"anime\",\"name\":\"JR East Marketing & Communications\",\"url\":\"https:\\/\\/myanimelist.net\\/anime\\/producer\\/1501\\/JR_East_Marketing___Communications\"}],\"licensors\":[{\"mal_id\":493,\"type\":\"anime\",\"name\":\"Aniplex of America\",\"url\":\"https:\\/\\/myanimelist.net\\/anime\\/producer\\/493\\/Aniplex_of_America\"}],\"studios\":[{\"mal_id\":56,\"type\":\"anime\",\"name\":\"A-1 Pictures\",\"url\":\"https:\\/\\/myanimelist.net\\/anime\\/producer\\/56\\/A-1_Pictures\"}],\"genres\":[{\"mal_id\":4,\"type\":\"anime\",\"name\":\"Comedy\",\"url\":\"https:\\/\\/myanimelist.net\\/anime\\/genre\\/4\\/Comedy\"},{\"mal_id\":22,\"type\":\"anime\",\"name\":\"Romance\",\"url\":\"https:\\/\\/myanimelist.net\\/anime\\/genre\\/22\\/Romance\"}],\"explicit_genres\":[],\"themes\":[{\"mal_id\":23,\"type\":\"anime\",\"name\":\"School\",\"url\":\"https:\\/\\/myanimelist.net\\/anime\\/genre\\/23\\/School\"}],\"demographics\":[{\"mal_id\":42,\"type\":\"anime\",\"name\":\"Seinen\",\"url\":\"https:\\/\\/myanimelist.net\\/anime\\/genre\\/42\\/Seinen\"}]},{\"mal_id\":43608,\"url\":\"https:\\/\\/myanimelist.net\\/anime\\/43608\\/Kaguya-sama_wa_Kokurasetai__Ultra_Romantic\",\"images\":{\"jpg\":{\"image_url\":\"https:\\/\\/cdn.myanimelist.net\\/images\\/anime\\/1160\\/122627.jpg\",\"small_image_url\":\"https:\\/\\/cdn.myanimelist.net\\/images\\/anime\\/1160\\/122627t.jpg\",\"large_image_url\":\"https:\\/\\/cdn.myanimelist.net\\/images\\/anime\\/1160\\/122627l.jpg\"},\"webp\":{\"image_url\":\"https:\\/\\/cdn.myanimelist.net\\/images\\/anime\\/1160\\/122627.webp\",\"small_image_url\":\"https:\\/\\/cdn.myanimelist.net\\/images\\/anime\\/1160\\/122627t.webp\",\"large_image_url\":\"https:\\/\\/cdn.myanimelist.net\\/images\\/anime\\/1160\\/122627l.webp\"}},\"trailer\":{\"youtube_id\":\"vFN5K-iAyV0\",\"url\":\"https:\\/\\/www.youtube.com\\/watch?v=vFN5K-iAyV0\",\"embed_url\":\"https:\\/\\/www.youtube.com\\/embed\\/vFN5K-iAyV0?enablejsapi=1&wmode=opaque&autoplay=1\",\"images\":{\"image_url\":\"https:\\/\\/img.youtube.com\\/vi\\/vFN5K-iAyV0\\/default.jpg\",\"small_image_url\":\"https:\\/\\/img.youtube.com\\/vi\\/vFN5K-iAyV0\\/sddefault.jpg\",\"medium_image_url\":\"https:\\/\\/img.youtube.com\\/vi\\/vFN5K-iAyV0\\/mqdefault.jpg\",\"large_image_url\":\"https:\\/\\/img.youtube.com\\/vi\\/vFN5K-iAyV0\\/hqdefault.jpg\",\"maximum_image_url\":\"https:\\/\\/img.youtube.com\\/vi\\/vFN5K-iAyV0\\/maxresdefault.jpg\"}},\"approved\":true,\"titles\":[{\"type\":\"Default\",\"title\":\"Kaguya-sama wa Kokurasetai: Ultra Romantic\"},{\"type\":\"Synonym\",\"title\":\"Kaguya-sama wa Kokurasetai: Tensai-tachi no Renai Zunousen 3rd Season\"},{\"type\":\"Synonym\",\"title\":\"Kaguya-sama: Love is War Season 3rd Season\"},{\"type\":\"Japanese\",\"title\":\"\\u304b\\u3050\\u3084\\u69d8\\u306f\\u544a\\u3089\\u305b\\u305f\\u3044-\\u30a6\\u30eb\\u30c8\\u30e9\\u30ed\\u30de\\u30f3\\u30c6\\u30a3\\u30c3\\u30af-\"},{\"type\":\"English\",\"title\":\"Kaguya-sama: Love is War -Ultra Romantic-\"}],\"title\":\"Kaguya-sama wa Kokurasetai: Ultra Romantic\",\"title_english\":\"Kaguya-sama: Love is War -Ultra Romantic-\",\"title_japanese\":\"\\u304b\\u3050\\u3084\\u69d8\\u306f\\u544a\\u3089\\u305b\\u305f\\u3044-\\u30a6\\u30eb\\u30c8\\u30e9\\u30ed\\u30de\\u30f3\\u30c6\\u30a3\\u30c3\\u30af-\",\"title_synonyms\":[\"Kaguya-sama wa Kokurasetai: Tensai-tachi no Renai Zunousen 3rd Season\",\"Kaguya-sama: Love is War Season 3rd Season\"],\"type\":\"TV\",\"source\":\"Manga\",\"episodes\":13,\"status\":\"Finished Airing\",\"airing\":false,\"aired\":{\"from\":\"2022-04-09T00:00:00+00:00\",\"to\":\"2022-06-25T00:00:00+00:00\",\"prop\":{\"from\":{\"day\":9,\"month\":4,\"year\":2022},\"to\":{\"day\":25,\"month\":6,\"year\":2022}},\"string\":\"Apr 9, 2022 to Jun 25, 2022\"},\"duration\":\"23 min per ep\",\"rating\":\"PG-13 - Teens 13 or older\",\"score\":8.98,\"scored_by\":576869,\"rank\":14,\"popularity\":168,\"members\":1016367,\"favorites\":32215,\"synopsis\":\"The elite members of Shuchiin Academy's student council continue their competitive day-to-day antics. Council president Miyuki Shirogane clashes daily against vice-president Kaguya Shinomiya, each fighting tooth and nail to trick the other into confessing their romantic love. Kaguya struggles within the strict confines of her wealthy, uptight family, rebelling against her cold default demeanor as she warms to Shirogane and the rest of her friends.\\n\\nMeanwhile, council treasurer Yuu Ishigami suffers under the weight of his hopeless crush on Tsubame Koyasu, a popular upperclassman who helps to instill a new confidence in him. Miko Iino, the newest student council member, grows closer to the rule-breaking Ishigami while striving to overcome her own authoritarian moral code.\\n\\nAs love further blooms at Shuchiin Academy, the student council officers drag their outsider friends into increasingly comedic conflicts.\\n\\n[Written by MAL Rewrite]\",\"background\":\"\",\"season\":\"spring\",\"year\":2022,\"broadcast\":{\"day\":\"Saturdays\",\"time\":\"00:00\",\"timezone\":\"Asia\\/Tokyo\",\"string\":\"Saturdays at 00:00 (JST)\"},\"producers\":[{\"mal_id\":17,\"type\":\"anime\",\"name\":\"Aniplex\",\"url\":\"https:\\/\\/myanimelist.net\\/anime\\/producer\\/17\\/Aniplex\"},{\"mal_id\":143,\"type\":\"anime\",\"name\":\"Mainichi Broadcasting System\",\"url\":\"https:\\/\\/myanimelist.net\\/anime\\/producer\\/143\\/Mainichi_Broadcasting_System\"},{\"mal_id\":306,\"type\":\"anime\",\"name\":\"Magic Capsule\",\"url\":\"https:\\/\\/myanimelist.net\\/anime\\/producer\\/306\\/Magic_Capsule\"},{\"mal_id\":1365,\"type\":\"anime\",\"name\":\"Shueisha\",\"url\":\"https:\\/\\/myanimelist.net\\/anime\\/producer\\/1365\\/Shueisha\"},{\"mal_id\":1501,\"type\":\"anime\",\"name\":\"JR East Marketing & Communications\",\"url\":\"https:\\/\\/myanimelist.net\\/anime\\/producer\\/1501\\/JR_East_Marketing___Communications\"}],\"licensors\":[{\"mal_id\":493,\"type\":\"anime\",\"name\":\"Aniplex of America\",\"url\":\"https:\\/\\/myanimelist.net\\/anime\\/producer\\/493\\/Aniplex_of_America\"}],\"studios\":[{\"mal_id\":56,\"type\":\"anime\",\"name\":\"A-1 Pictures\",\"url\":\"https:\\/\\/myanimelist.net\\/anime\\/producer\\/56\\/A-1_Pictures\"}],\"genres\":[{\"mal_id\":4,\"type\":\"anime\",\"name\":\"Comedy\",\"url\":\"https:\\/\\/myanimelist.net\\/anime\\/genre\\/4\\/Comedy\"},{\"mal_id\":22,\"type\":\"anime\",\"name\":\"Romance\",\"url\":\"https:\\/\\/myanimelist.net\\/anime\\/genre\\/22\\/Romance\"}],\"explicit_genres\":[],\"themes\":[{\"mal_id\":23,\"type\":\"anime\",\"name\":\"School\",\"url\":\"https:\\/\\/myanimelist.net\\/anime\\/genre\\/23\\/School\"}],\"demographics\":[{\"mal_id\":42,\"type\":\"anime\",\"name\":\"Seinen\",\"url\":\"https:\\/\\/myanimelist.net\\/anime\\/genre\\/42\\/Seinen\"}]},{\"mal_id\":52198,\"url\":\"https:\\/\\/myanimelist.net\\/anime\\/52198\\/Kaguya-sama_wa_Kokurasetai__First_Kiss_wa_Owaranai\",\"images\":{\"jpg\":{\"image_url\":\"https:\\/\\/cdn.myanimelist.net\\/images\\/anime\\/1670\\/130060.jpg\",\"small_image_url\":\"https:\\/\\/cdn.myanimelist.net\\/images\\/anime\\/1670\\/130060t.jpg\",\"large_image_url\":\"https:\\/\\/cdn.myanimelist.net\\/images\\/anime\\/1670\\/130060l.jpg\"},\"webp\":{\"image_url\":\"https:\\/\\/cdn.myanimelist.net\\/images\\/anime\\/1670\\/130060.webp\",\"small_image_url\":\"https:\\/\\/cdn.myanimelist.net\\/images\\/anime\\/1670\\/130060t.webp\",\"large_image_url\":\"https:\\/\\/cdn.myanimelist.net\\/images\\/anime\\/1670\\/130060l.webp\"}},\"trailer\":{\"youtube_id\":\"8Zy8-00-Pls\",\"url\":\"https:\\/\\/www.youtube.com\\/watch?v=8Zy8-00-Pls\",\"embed_url\":\"https:\\/\\/www.youtube.com\\/embed\\/8Zy8-00-Pls?enablejsapi=1&wmode=opaque&autoplay=1\",\"images\":{\"image_url\":\"https:\\/\\/img.youtube.com\\/vi\\/8Zy8-00-Pls\\/default.jpg\",\"small_image_url\":\"https:\\/\\/img.youtube.com\\/vi\\/8Zy8-00-Pls\\/sddefault.jpg\",\"medium_image_url\":\"https:\\/\\/img.youtube.com\\/vi\\/8Zy8-00-Pls\\/mqdefault.jpg\",\"large_image_url\":\"https:\\/\\/img.youtube.com\\/vi\\/8Zy8-00-Pls\\/hqdefault.jpg\",\"maximum_image_url\":\"https:\\/\\/img.youtube.com\\/vi\\/8Zy8-00-Pls\\/maxresdefault.jpg\"}},\"approved\":true,\"titles\":[{\"type\":\"Default\",\"title\":\"Kaguya-sama wa Kokurasetai: First Kiss wa Owaranai\"},{\"type\":\"Japanese\",\"title\":\"\\u304b\\u3050\\u3084\\u69d8\\u306f\\u544a\\u3089\\u305b\\u305f\\u3044 -\\u30d5\\u30a1\\u30fc\\u30b9\\u30c8\\u30ad\\u30c3\\u30b9\\u306f\\u7d42\\u308f\\u3089\\u306a\\u3044-\"},{\"type\":\"English\",\"title\":\"Kaguya-sama: Love is War -The First Kiss That Never Ends-\"}],\"title\":\"Kaguya-sama wa Kokurasetai: First Kiss wa Owaranai\",\"title_english\":\"Kaguya-sama: Love is War -The First Kiss That Never Ends-\",\"title_japanese\":\"\\u304b\\u3050\\u3084\\u69d8\\u306f\\u544a\\u3089\\u305b\\u305f\\u3044 -\\u30d5\\u30a1\\u30fc\\u30b9\\u30c8\\u30ad\\u30c3\\u30b9\\u306f\\u7d42\\u308f\\u3089\\u306a\\u3044-\",\"title_synonyms\":[],\"type\":\"Movie\",\"source\":\"Manga\",\"episodes\":1,\"status\":\"Finished Airing\",\"airing\":false,\"aired\":{\"from\":\"2022-12-17T00:00:00+00:00\",\"to\":null,\"prop\":{\"from\":{\"day\":17,\"month\":12,\"year\":2022},\"to\":{\"day\":null,\"month\":null,\"year\":null}},\"string\":\"Dec 17, 2022\"},\"duration\":\"1 hr 36 min\",\"rating\":\"PG-13 - Teens 13 or older\",\"score\":8.74,\"scored_by\":178082,\"rank\":49,\"popularity\":807,\"members\":319974,\"favorites\":2135,\"synopsis\":\"After their first kiss, Kaguya Shinomiya and Miyuki Shirogane are left unsure where their relationship stands. The troubling uncertainty of whether they could be considered an official couple unleashes newfound problems as both Kaguya and Shirogane struggle to sort out their feelings.\\n\\nWhile the lovestruck student council officers fret, the Christmas season rolls around, and romance is in the air. In the face of widespread tenderness, Kaguya and Shirogane must endure their affectionate battle of wits once more. Should they reconcile their feelings for one another, they may find themselves within reach of what they have both been longing for so long: true love.\\n\\n[Written by MAL Rewrite]\",\"background\":\"\",\"season\":null,\"year\":null,\"broadcast\":{\"day\":null,\"time\":null,\"timezone\":null,\"string\":null},\"producers\":[{\"mal_id\":17,\"type\":\"anime\",\"name\":\"Aniplex\",\"url\":\"https:\\/\\/myanimelist.net\\/anime\\/producer\\/17\\/Aniplex\"},{\"mal_id\":143,\"type\":\"anime\",\"name\":\"Mainichi Broadcasting System\",\"url\":\"https:\\/\\/myanimelist.net\\/anime\\/producer\\/143\\/Mainichi_Broadcasting_System\"},{\"mal_id\":1365,\"type\":\"anime\",\"name\":\"Shueisha\",\"url\":\"https:\\/\\/myanimelist.net\\/anime\\/producer\\/1365\\/Shueisha\"},{\"mal_id\":1501,\"type\":\"anime\",\"name\":\"JR East Marketing & Communications\",\"url\":\"https:\\/\\/myanimelist.net\\/anime\\/producer\\/1501\\/JR_East_Marketing___Communications\"}],\"licensors\":[{\"mal_id\":493,\"type\":\"anime\",\"name\":\"Aniplex of America\",\"url\":\"https:\\/\\/myanimelist.net\\/anime\\/producer\\/493\\/Aniplex_of_America\"}],\"studios\":[{\"mal_id\":56,\"type\":\"anime\",\"name\":\"A-1 Pictures\",\"url\":\"https:\\/\\/myanimelist.net\\/anime\\/producer\\/56\\/A-1_Pictures\"}],\"genres\":[{\"mal_id\":4,\"type\":\"anime\",\"name\":\"Comedy\",\"url\":\"https:\\/\\/myanimelist.net\\/anime\\/genre\\/4\\/Comedy\"},{\"mal_id\":8,\"type\":\"anime\",\"name\":\"Drama\",\"url\":\"https:\\/\\/myanimelist.net\\/anime\\/genre\\/8\\/Drama\"},{\"mal_id\":22,\"type\":\"anime\",\"name\":\"Romance\",\"url\":\"https:\\/\\/myanimelist.net\\/anime\\/genre\\/22\\/Romance\"}],\"explicit_genres\":[],\"themes\":[{\"mal_id\":23,\"type\":\"anime\",\"name\":\"School\",\"url\":\"https:\\/\\/myanimelist.net\\/anime\\/genre\\/23\\/School\"}],\"demographics\":[{\"mal_id\":42,\"type\":\"anime\",\"name\":\"Seinen\",\"url\":\"https:\\/\\/myanimelist.net\\/anime\\/genre\\/42\\/Seinen\"}]}]}",
)
test anime::metadata::anime_tests::test_anime_search ... ok

test result: ok. 1 passed; 0 failed; 0 ignored; 0 measured; 2 filtered out; finished in 0.60s

